{
    "se-facebook-messenger": {
        "vb": [
            0,
            0,
            324,
            324
        ],
        "svg": "<path d=\"M162,0C73.1,0,1,67.2,1,150c0,47.2,23.4,89.3,60,116.8V324l54.8-30.3c14.6,4.1,30.1,6.3,46.2,6.3 c88.9,0,161-67.2,161-150S250.9,0,162,0z M178,202l-41-44l-80,44l88-94l42,44l79-44L178,202z\"/>"
    }
}