{
	"jsoneditor":{
		"content":{
			"css":[
				"/snkeng/core/res/ext_libraries/jsoneditor/jsoneditor.css"
			],
			"js":[
				"/snkeng/core/res/ext_libraries/jsoneditor/jsoneditor-minimalist.js"
			]
		}
	}
}
